6.3 join | RでGIS分析
…
　：

このままではあまり使えないので、区の中の郵便局の数を数えてみましょう。

polygon_join %>%
  group_by(name.x) %>%
  summarise(post_count = n())

## Simple feature collection with 23 features and 2 fields
## Geometry type: MULTIPOLYGON
## Dimension:     XY
## Bounding box:  xmin: 370083.3 ymin: 3931299 xmax: 402192.8 ymax: 3964406
## Projected CRS: WGS 84 / UTM zone 54N
## # A tibble: 23 x 3
##    name.x    post_count                                                 geometry
##    <chr>          <int>                                       <MULTIPOLYGON [m]>
##  1 adachi            66 (((389683.7 3963418, 389722.5 3963367, 389753.3 3963352~
##  2 arakawa           19 (((388400.5 3955396, 388440.5 3955415, 388482.7 3955431~
##  3 bunkyo            33 (((386693.6 3955308, 386703.8 3955312, 386711.6 3955318~
##  4 chiyoda           49 (((388552.8 3951697, 388552.1 3951704, 388550.1 3951722~
##  5 chuo              51 (((388295.1 3946438, 388209.7 3946491, 387998.6 3946630~
##  6 edogawa           49 (((402190.3 3951100, 402192.8 3951093, 402191.8 3951059~
##  7 itabashi          47 (((384230.3 3956441, 384197 3956453, 384188.5 3956457, ~
##  8 katsushi~         46 (((396062.5 3952489, 395337 3953401, 395295.8 3953453, ~
##  9 kita              39 (((387269.3 3955270, 387267.1 3955274, 387251.9 3955282~
## 10 koto              41 (((388929.4 3942555, 388826.5 3942717, 388746 3942842, ~
## # ... with 13 more rows
…
